0.297203
0.272905
0.273264
0.275573
0.272003
0.262405
0.268856
0.286586
0.301871
0.266642
0.283694
0.302085
0.272718
0.262484
0.27447
0.28906
0.305483
0.27399
0.298998
0.294043
0.292157
0.290818
0.248148
0.282525
0.263813
0.289786
0.290237
0.262321
0.290565
0.269324
0.262187
0.277098
0.279861
0.299022
0.321423
0.264117
0.270514
0.278993
0.271358
0.288028
0.281752
0.251063
0.274707
0.292943
0.288655
0.285771
0.278201
0.300138
0.290097
0.27668
0.284546
0.306702
0.256566
0.268254
0.276558
0.256814
0.262858
0.288492
0.2726
0.275816
0.269306
0.278126
0.291246
0.310369
0.279028
0.282169
0.250504
0.263457
0.287633
0.283576
0.291433
0.262915
0.260185
0.264236
0.277896
0.268949
0.296025
0.280556
0.276558
0.300912
0.323301
0.270171
0.26696
0.302565
0.29151
0.270892
0.265126
0.317635
0.272489
0.288205
0.297901
0.274608
0.299151
0.314155
0.279383
0.2869
0.282262
0.288873
0.297229
0.304199
average : 0.28164435 seconds
