\relax 
\@writefile{toc}{\contentsline {section}{\numberline {1}Group Information}{1}}
\@writefile{toc}{\contentsline {section}{\numberline {2}Assignment Report}{1}}
\@writefile{toc}{\contentsline {subsection}{\numberline {2.1}Prepairing Geni}{1}}
\@writefile{toc}{\contentsline {paragraph}{}{1}}
\@writefile{toc}{\contentsline {paragraph}{}{1}}
\@writefile{lot}{\contentsline {table}{\numberline {1}{\ignorespaces Routing Table\relax }}{1}}
\providecommand*\caption@xref[2]{\@setref\relax\@undefined{#1}}
\newlabel{routing-table}{{1}{1}}
\@writefile{lot}{\contentsline {table}{\numberline {2}{\ignorespaces Server info table\relax }}{2}}
\newlabel{server-info-table}{{2}{2}}
\@writefile{toc}{\contentsline {subsection}{\numberline {2.2}Network emulation delay and End-to-end delay}{2}}
\@writefile{toc}{\contentsline {paragraph}{}{2}}
\@writefile{lof}{\contentsline {figure}{\numberline {1}{\ignorespaces End-to-end vs emulation delay (Exp1)\relax }}{2}}
\newlabel{fig:EEE1}{{1}{2}}
\@writefile{toc}{\contentsline {paragraph}{}{3}}
\@writefile{lof}{\contentsline {figure}{\numberline {2}{\ignorespaces End-to-end vs emulation delay (Exp2)\relax }}{3}}
\newlabel{fig:EEE2}{{2}{3}}
\@writefile{toc}{\contentsline {paragraph}{}{3}}
\@writefile{toc}{\contentsline {subsection}{\numberline {2.3}Number of visited nodes vs Packet loss}{3}}
\@writefile{toc}{\contentsline {paragraph}{}{3}}
\@writefile{lof}{\contentsline {figure}{\numberline {3}{\ignorespaces Number of visited nodes vs Packet loss (Exp3)\relax }}{4}}
\newlabel{fig:NPE3}{{3}{4}}
\@writefile{toc}{\contentsline {paragraph}{}{4}}
\@writefile{lof}{\contentsline {figure}{\numberline {4}{\ignorespaces Number of visited nodes vs Packet loss (Exp4)\relax }}{5}}
\newlabel{fig:NPE4}{{4}{5}}
\@writefile{toc}{\contentsline {paragraph}{}{5}}
