Sent:     b"{'d': 'T3', 'c': '2017-11-19 19:02:00.540120', 'p': ''}"
Received: {'d': 'T3', 'c': '2017-11-19 19:02:00.540120', 'p': ' - T3 -  - T2 -  - GATEWAY - '}
Sent:     b"{'c': '2017-11-19 19:02:01.427257', 'p': '', 'd': 'T3'}"
Received: {'d': 'T3', 'c': '2017-11-19 19:02:01.427257', 'p': ' - T3 -  - T2 -  - GATEWAY - '}
Sent:     b"{'d': 'T3', 'p': '', 'c': '2017-11-19 19:02:02.265653'}"
Received: {'d': 'T3', 'c': '2017-11-19 19:02:02.265653', 'p': ' - T3 -  - T2 -  - GATEWAY - '}
Sent:     b"{'c': '2017-11-19 19:02:03.106574', 'd': 'T3', 'p': ''}"
Received: {'d': 'T3', 'c': '2017-11-19 19:02:03.106574', 'p': ' - T3 -  - T2 -  - GATEWAY - '}
Sent:     b"{'d': 'T3', 'p': '', 'c': '2017-11-19 19:02:03.975286'}"
Received: {'d': 'T3', 'c': '2017-11-19 19:02:03.975286', 'p': ' - T3 -  - T2 -  - GATEWAY - '}
Sent:     b"{'p': '', 'c': '2017-11-19 19:02:04.819708', 'd': 'T3'}"
Received: {'d': 'T3', 'c': '2017-11-19 19:02:04.819708', 'p': ' - T3 -  - T2 -  - GATEWAY - '}
Sent:     b"{'d': 'T3', 'c': '2017-11-19 19:02:05.709238', 'p': ''}"
Received: {'d': 'T3', 'c': '2017-11-19 19:02:05.709238', 'p': ' - T3 -  - T2 -  - GATEWAY - '}
Sent:     b"{'d': 'T3', 'c': '2017-11-19 19:02:06.571757', 'p': ''}"
Received: {'d': 'T3', 'c': '2017-11-19 19:02:06.571757', 'p': ' - T3 -  - T2 -  - GATEWAY - '}
Sent:     b"{'p': '', 'c': '2017-11-19 19:02:07.422260', 'd': 'T3'}"
Received: {'d': 'T3', 'c': '2017-11-19 19:02:07.422260', 'p': ' - T3 -  - T2 -  - GATEWAY - '}
Sent:     b"{'p': '', 'd': 'T3', 'c': '2017-11-19 19:02:08.270686'}"
Received: {'d': 'T3', 'c': '2017-11-19 19:02:08.270686', 'p': ' - T3 -  - T2 -  - GATEWAY - '}
Sent:     b"{'d': 'T3', 'c': '2017-11-19 19:02:09.176598', 'p': ''}"
Received: {'d': 'T3', 'c': '2017-11-19 19:02:09.176598', 'p': ' - T3 -  - T2 -  - GATEWAY - '}
Sent:     b"{'d': 'T3', 'p': '', 'c': '2017-11-19 19:02:10.013001'}"
Received: {'d': 'T3', 'c': '2017-11-19 19:02:10.013001', 'p': ' - T3 -  - T2 -  - GATEWAY - '}
Sent:     b"{'p': '', 'd': 'T3', 'c': '2017-11-19 19:02:10.867942'}"
Received: {'d': 'T3', 'c': '2017-11-19 19:02:10.867942', 'p': ' - T3 -  - T2 -  - GATEWAY - '}
Sent:     b"{'p': '', 'c': '2017-11-19 19:02:11.739192', 'd': 'T3'}"
Received: {'d': 'T3', 'c': '2017-11-19 19:02:11.739192', 'p': ' - T3 -  - T2 -  - GATEWAY - '}
Sent:     b"{'p': '', 'd': 'T3', 'c': '2017-11-19 19:02:12.617225'}"
Received: {'d': 'T3', 'c': '2017-11-19 19:02:12.617225', 'p': ' - T3 -  - T2 -  - GATEWAY - '}
Sent:     b"{'d': 'T3', 'p': '', 'c': '2017-11-19 19:02:13.491021'}"
Received: {'d': 'T3', 'c': '2017-11-19 19:02:13.491021', 'p': ' - T3 -  - T2 -  - GATEWAY - '}
Sent:     b"{'d': 'T3', 'p': '', 'c': '2017-11-19 19:02:14.332859'}"
Received: {'d': 'T3', 'c': '2017-11-19 19:02:14.332859', 'p': ' - T3 -  - T2 -  - GATEWAY - '}
Sent:     b"{'c': '2017-11-19 19:02:15.187170', 'p': '', 'd': 'T3'}"
Received: {'d': 'T3', 'c': '2017-11-19 19:02:15.187170', 'p': ' - T3 -  - T2 -  - GATEWAY - '}
Sent:     b"{'d': 'T3', 'p': '', 'c': '2017-11-19 19:02:16.059080'}"
Received: {'d': 'T3', 'c': '2017-11-19 19:02:16.059080', 'p': ' - T3 -  - T2 -  - GATEWAY - '}
Sent:     b"{'d': 'T3', 'p': '', 'c': '2017-11-19 19:02:16.919882'}"
Received: {'d': 'T3', 'c': '2017-11-19 19:02:16.919882', 'p': ' - T3 -  - T2 -  - GATEWAY - '}
Sent:     b"{'p': '', 'd': 'T3', 'c': '2017-11-19 19:02:17.788473'}"
Received: {'d': 'T3', 'c': '2017-11-19 19:02:17.788473', 'p': ' - T3 -  - T2 -  - GATEWAY - '}
Sent:     b"{'p': '', 'd': 'T3', 'c': '2017-11-19 19:02:18.640318'}"
Received: {'d': 'T3', 'c': '2017-11-19 19:02:18.640318', 'p': ' - T3 -  - T2 -  - GATEWAY - '}
Sent:     b"{'p': '', 'c': '2017-11-19 19:02:19.499336', 'd': 'T3'}"
Received: {'d': 'T3', 'c': '2017-11-19 19:02:19.499336', 'p': ' - T3 -  - T2 -  - GATEWAY - '}
Sent:     b"{'p': '', 'c': '2017-11-19 19:02:20.328965', 'd': 'T3'}"
Received: {'d': 'T3', 'c': '2017-11-19 19:02:20.328965', 'p': ' - T3 -  - T2 -  - GATEWAY - '}
Sent:     b"{'c': '2017-11-19 19:02:21.217372', 'd': 'T3', 'p': ''}"
Received: {'d': 'T3', 'c': '2017-11-19 19:02:21.217372', 'p': ' - T3 -  - T2 -  - GATEWAY - '}
Sent:     b"{'c': '2017-11-19 19:02:22.074787', 'p': '', 'd': 'T3'}"
Received: {'d': 'T3', 'c': '2017-11-19 19:02:22.074787', 'p': ' - T3 -  - T2 -  - GATEWAY - '}
Sent:     b"{'d': 'T3', 'c': '2017-11-19 19:02:22.914618', 'p': ''}"
Received: {'d': 'T3', 'c': '2017-11-19 19:02:22.914618', 'p': ' - T3 -  - T2 -  - GATEWAY - '}
Sent:     b"{'c': '2017-11-19 19:02:23.761990', 'p': '', 'd': 'T3'}"
Received: {'d': 'T3', 'c': '2017-11-19 19:02:23.761990', 'p': ' - T3 -  - T2 -  - GATEWAY - '}
Sent:     b"{'p': '', 'd': 'T3', 'c': '2017-11-19 19:02:24.617194'}"
Received: {'d': 'T3', 'c': '2017-11-19 19:02:24.617194', 'p': ' - T3 -  - T2 -  - GATEWAY - '}
Sent:     b"{'c': '2017-11-19 19:02:25.465634', 'p': '', 'd': 'T3'}"
Received: {'d': 'T3', 'c': '2017-11-19 19:02:25.465634', 'p': ' - T3 -  - T2 -  - GATEWAY - '}
Sent:     b"{'d': 'T3', 'c': '2017-11-19 19:02:26.354800', 'p': ''}"
Received: {'d': 'T3', 'c': '2017-11-19 19:02:26.354800', 'p': ' - T3 -  - T2 -  - GATEWAY - '}
Sent:     b"{'p': '', 'c': '2017-11-19 19:02:27.219385', 'd': 'T3'}"
Received: {'d': 'T3', 'c': '2017-11-19 19:02:27.219385', 'p': ' - T3 -  - T2 -  - GATEWAY - '}
Sent:     b"{'p': '', 'd': 'T3', 'c': '2017-11-19 19:02:28.065154'}"
Received: {'d': 'T3', 'c': '2017-11-19 19:02:28.065154', 'p': ' - T3 -  - T2 -  - GATEWAY - '}
Sent:     b"{'p': '', 'c': '2017-11-19 19:02:28.922566', 'd': 'T3'}"
Received: {'d': 'T3', 'c': '2017-11-19 19:02:28.922566', 'p': ' - T3 -  - T2 -  - GATEWAY - '}
Sent:     b"{'c': '2017-11-19 19:02:29.759532', 'p': '', 'd': 'T3'}"
Received: {'d': 'T3', 'c': '2017-11-19 19:02:29.759532', 'p': ' - T3 -  - T2 -  - GATEWAY - '}
Sent:     b"{'p': '', 'd': 'T3', 'c': '2017-11-19 19:02:30.628769'}"
Received: {'d': 'T3', 'c': '2017-11-19 19:02:30.628769', 'p': ' - T3 -  - T2 -  - GATEWAY - '}
Sent:     b"{'c': '2017-11-19 19:02:31.492943', 'p': '', 'd': 'T3'}"
Received: {'d': 'T3', 'c': '2017-11-19 19:02:31.492943', 'p': ' - T3 -  - T2 -  - GATEWAY - '}
Sent:     b"{'d': 'T3', 'c': '2017-11-19 19:02:32.367005', 'p': ''}"
Received: {'d': 'T3', 'c': '2017-11-19 19:02:32.367005', 'p': ' - T3 -  - T2 -  - GATEWAY - '}
Sent:     b"{'p': '', 'c': '2017-11-19 19:02:33.242414', 'd': 'T3'}"
Received: {'d': 'T3', 'c': '2017-11-19 19:02:33.242414', 'p': ' - T3 -  - T2 -  - GATEWAY - '}
Sent:     b"{'d': 'T3', 'p': '', 'c': '2017-11-19 19:02:34.089313'}"
Received: {'d': 'T3', 'c': '2017-11-19 19:02:34.089313', 'p': ' - T3 -  - T2 -  - GATEWAY - '}
Sent:     b"{'d': 'T3', 'c': '2017-11-19 19:02:34.944356', 'p': ''}"
Received: {'d': 'T3', 'c': '2017-11-19 19:02:34.944356', 'p': ' - T3 -  - T2 -  - GATEWAY - '}
Sent:     b"{'d': 'T3', 'c': '2017-11-19 19:02:35.791497', 'p': ''}"
Received: {'d': 'T3', 'c': '2017-11-19 19:02:35.791497', 'p': ' - T3 -  - T2 -  - GATEWAY - '}
Sent:     b"{'p': '', 'c': '2017-11-19 19:02:36.669547', 'd': 'T3'}"
Received: {'d': 'T3', 'c': '2017-11-19 19:02:36.669547', 'p': ' - T3 -  - T2 -  - GATEWAY - '}
Sent:     b"{'p': '', 'd': 'T3', 'c': '2017-11-19 19:02:37.499498'}"
Received: {'d': 'T3', 'c': '2017-11-19 19:02:37.499498', 'p': ' - T3 -  - T2 -  - GATEWAY - '}
Sent:     b"{'c': '2017-11-19 19:02:38.336686', 'd': 'T3', 'p': ''}"
Received: {'d': 'T3', 'c': '2017-11-19 19:02:38.336686', 'p': ' - T3 -  - T2 -  - GATEWAY - '}
Sent:     b"{'p': '', 'd': 'T3', 'c': '2017-11-19 19:02:39.184322'}"
Received: {'d': 'T3', 'c': '2017-11-19 19:02:39.184322', 'p': ' - T3 -  - T2 -  - GATEWAY - '}
Sent:     b"{'p': '', 'd': 'T3', 'c': '2017-11-19 19:02:40.044053'}"
Received: {'d': 'T3', 'c': '2017-11-19 19:02:40.044053', 'p': ' - T3 -  - T2 -  - GATEWAY - '}
Sent:     b"{'c': '2017-11-19 19:02:40.906665', 'p': '', 'd': 'T3'}"
Received: {'d': 'T3', 'c': '2017-11-19 19:02:40.906665', 'p': ' - T3 -  - T2 -  - GATEWAY - '}
Sent:     b"{'d': 'T3', 'c': '2017-11-19 19:02:41.809743', 'p': ''}"
Received: {'d': 'T3', 'c': '2017-11-19 19:02:41.809743', 'p': ' - T3 -  - T2 -  - GATEWAY - '}
Sent:     b"{'p': '', 'c': '2017-11-19 19:02:42.669589', 'd': 'T3'}"
Received: {'d': 'T3', 'c': '2017-11-19 19:02:42.669589', 'p': ' - T3 -  - T2 -  - GATEWAY - '}
Sent:     b"{'d': 'T3', 'c': '2017-11-19 19:02:43.537567', 'p': ''}"
Received: {'d': 'T3', 'c': '2017-11-19 19:02:43.537567', 'p': ' - T3 -  - T2 -  - GATEWAY - '}
Sent:     b"{'c': '2017-11-19 19:02:44.357028', 'p': '', 'd': 'T3'}"
Received: {'d': 'T3', 'c': '2017-11-19 19:02:44.357028', 'p': ' - T3 -  - T2 -  - GATEWAY - '}
Sent:     b"{'c': '2017-11-19 19:02:45.217405', 'p': '', 'd': 'T3'}"
Received: {'d': 'T3', 'c': '2017-11-19 19:02:45.217405', 'p': ' - T3 -  - T2 -  - GATEWAY - '}
Sent:     b"{'d': 'T3', 'c': '2017-11-19 19:02:46.060220', 'p': ''}"
Received: {'d': 'T3', 'c': '2017-11-19 19:02:46.060220', 'p': ' - T3 -  - T2 -  - GATEWAY - '}
Sent:     b"{'c': '2017-11-19 19:02:46.909297', 'd': 'T3', 'p': ''}"
Received: {'d': 'T3', 'c': '2017-11-19 19:02:46.909297', 'p': ' - T3 -  - T2 -  - GATEWAY - '}
Sent:     b"{'c': '2017-11-19 19:02:47.763563', 'p': '', 'd': 'T3'}"
Received: {'d': 'T3', 'c': '2017-11-19 19:02:47.763563', 'p': ' - T3 -  - T2 -  - GATEWAY - '}
Sent:     b"{'d': 'T3', 'p': '', 'c': '2017-11-19 19:02:48.601120'}"
Received: {'d': 'T3', 'c': '2017-11-19 19:02:48.601120', 'p': ' - T3 -  - T2 -  - GATEWAY - '}
Sent:     b"{'p': '', 'c': '2017-11-19 19:02:49.442011', 'd': 'T3'}"
Received: {'d': 'T3', 'c': '2017-11-19 19:02:49.442011', 'p': ' - T3 -  - T2 -  - GATEWAY - '}
Sent:     b"{'p': '', 'c': '2017-11-19 19:02:50.285252', 'd': 'T3'}"
Received: {'d': 'T3', 'c': '2017-11-19 19:02:50.285252', 'p': ' - T3 -  - T2 -  - GATEWAY - '}
Sent:     b"{'p': '', 'c': '2017-11-19 19:02:51.144947', 'd': 'T3'}"
Received: {'d': 'T3', 'c': '2017-11-19 19:02:51.144947', 'p': ' - T3 -  - T2 -  - GATEWAY - '}
Sent:     b"{'d': 'T3', 'p': '', 'c': '2017-11-19 19:02:52.001035'}"
Received: {'d': 'T3', 'c': '2017-11-19 19:02:52.001035', 'p': ' - T3 -  - T2 -  - GATEWAY - '}
Sent:     b"{'d': 'T3', 'c': '2017-11-19 19:02:52.846863', 'p': ''}"
Received: {'d': 'T3', 'c': '2017-11-19 19:02:52.846863', 'p': ' - T3 -  - T2 -  - GATEWAY - '}
Sent:     b"{'c': '2017-11-19 19:02:53.699025', 'd': 'T3', 'p': ''}"
Received: {'d': 'T3', 'c': '2017-11-19 19:02:53.699025', 'p': ' - T3 -  - T2 -  - GATEWAY - '}
Sent:     b"{'c': '2017-11-19 19:02:54.569385', 'p': '', 'd': 'T3'}"
Received: {'d': 'T3', 'c': '2017-11-19 19:02:54.569385', 'p': ' - T3 -  - T2 -  - GATEWAY - '}
Sent:     b"{'p': '', 'c': '2017-11-19 19:02:55.404792', 'd': 'T3'}"
Received: {'d': 'T3', 'c': '2017-11-19 19:02:55.404792', 'p': ' - T3 -  - T2 -  - GATEWAY - '}
Sent:     b"{'p': '', 'd': 'T3', 'c': '2017-11-19 19:02:56.257408'}"
Received: {'d': 'T3', 'c': '2017-11-19 19:02:56.257408', 'p': ' - T3 -  - T2 -  - GATEWAY - '}
Sent:     b"{'c': '2017-11-19 19:02:57.126262', 'd': 'T3', 'p': ''}"
Received: {'d': 'T3', 'c': '2017-11-19 19:02:57.126262', 'p': ' - T3 -  - T2 -  - GATEWAY - '}
Sent:     b"{'d': 'T3', 'c': '2017-11-19 19:02:57.961358', 'p': ''}"
Received: {'d': 'T3', 'c': '2017-11-19 19:02:57.961358', 'p': ' - T3 -  - T2 -  - GATEWAY - '}
Sent:     b"{'d': 'T3', 'p': '', 'c': '2017-11-19 19:02:58.810606'}"
Received: {'d': 'T3', 'c': '2017-11-19 19:02:58.810606', 'p': ' - T3 -  - T2 -  - GATEWAY - '}
Sent:     b"{'d': 'T3', 'p': '', 'c': '2017-11-19 19:02:59.686001'}"
Received: {'d': 'T3', 'c': '2017-11-19 19:02:59.686001', 'p': ' - T3 -  - T2 -  - GATEWAY - '}
Sent:     b"{'p': '', 'c': '2017-11-19 19:03:00.563484', 'd': 'T3'}"
Received: {'d': 'T3', 'c': '2017-11-19 19:03:00.563484', 'p': ' - T3 -  - T2 -  - GATEWAY - '}
Sent:     b"{'p': '', 'c': '2017-11-19 19:03:01.408594', 'd': 'T3'}"
Received: {'d': 'T3', 'c': '2017-11-19 19:03:01.408594', 'p': ' - T3 -  - T2 -  - GATEWAY - '}
Sent:     b"{'c': '2017-11-19 19:03:02.285220', 'p': '', 'd': 'T3'}"
Received: {'d': 'T3', 'c': '2017-11-19 19:03:02.285220', 'p': ' - T3 -  - T2 -  - GATEWAY - '}
Sent:     b"{'c': '2017-11-19 19:03:03.133744', 'd': 'T3', 'p': ''}"
Received: {'d': 'T3', 'c': '2017-11-19 19:03:03.133744', 'p': ' - T3 -  - T2 -  - GATEWAY - '}
Sent:     b"{'d': 'T3', 'c': '2017-11-19 19:03:04.013881', 'p': ''}"
Received: {'d': 'T3', 'c': '2017-11-19 19:03:04.013881', 'p': ' - T3 -  - T2 -  - GATEWAY - '}
Sent:     b"{'d': 'T3', 'c': '2017-11-19 19:03:04.853915', 'p': ''}"
Received: {'d': 'T3', 'c': '2017-11-19 19:03:04.853915', 'p': ' - T3 -  - T2 -  - GATEWAY - '}
Sent:     b"{'p': '', 'c': '2017-11-19 19:03:05.725049', 'd': 'T3'}"
Received: {'d': 'T3', 'c': '2017-11-19 19:03:05.725049', 'p': ' - T3 -  - T2 -  - GATEWAY - '}
Sent:     b"{'p': '', 'd': 'T3', 'c': '2017-11-19 19:03:06.584338'}"
Received: {'d': 'T3', 'c': '2017-11-19 19:03:06.584338', 'p': ' - T3 -  - T2 -  - GATEWAY - '}
Sent:     b"{'c': '2017-11-19 19:03:07.438660', 'p': '', 'd': 'T3'}"
Received: {'d': 'T3', 'c': '2017-11-19 19:03:07.438660', 'p': ' - T3 -  - T2 -  - GATEWAY - '}
Sent:     b"{'d': 'T3', 'p': '', 'c': '2017-11-19 19:03:08.271208'}"
Received: {'d': 'T3', 'c': '2017-11-19 19:03:08.271208', 'p': ' - T3 -  - T2 -  - GATEWAY - '}
Sent:     b"{'d': 'T3', 'c': '2017-11-19 19:03:09.110669', 'p': ''}"
Received: {'d': 'T3', 'c': '2017-11-19 19:03:09.110669', 'p': ' - T3 -  - T2 -  - GATEWAY - '}
Sent:     b"{'c': '2017-11-19 19:03:09.950113', 'd': 'T3', 'p': ''}"
Received: {'d': 'T3', 'c': '2017-11-19 19:03:09.950113', 'p': ' - T3 -  - T2 -  - GATEWAY - '}
Sent:     b"{'d': 'T3', 'p': '', 'c': '2017-11-19 19:03:10.798325'}"
Received: {'d': 'T3', 'c': '2017-11-19 19:03:10.798325', 'p': ' - T3 -  - T2 -  - GATEWAY - '}
Sent:     b"{'p': '', 'd': 'T3', 'c': '2017-11-19 19:03:11.650878'}"
Received: {'d': 'T3', 'c': '2017-11-19 19:03:11.650878', 'p': ' - T3 -  - T2 -  - GATEWAY - '}
Sent:     b"{'p': '', 'd': 'T3', 'c': '2017-11-19 19:03:12.488563'}"
Received: {'d': 'T3', 'c': '2017-11-19 19:03:12.488563', 'p': ' - T3 -  - T2 -  - GATEWAY - '}
Sent:     b"{'d': 'T3', 'c': '2017-11-19 19:03:13.360261', 'p': ''}"
Received: {'d': 'T3', 'c': '2017-11-19 19:03:13.360261', 'p': ' - T3 -  - T2 -  - GATEWAY - '}
Sent:     b"{'p': '', 'c': '2017-11-19 19:03:14.190547', 'd': 'T3'}"
Received: {'d': 'T3', 'c': '2017-11-19 19:03:14.190547', 'p': ' - T3 -  - T2 -  - GATEWAY - '}
Sent:     b"{'c': '2017-11-19 19:03:15.024872', 'p': '', 'd': 'T3'}"
Received: {'d': 'T3', 'c': '2017-11-19 19:03:15.024872', 'p': ' - T3 -  - T2 -  - GATEWAY - '}
Sent:     b"{'p': '', 'd': 'T3', 'c': '2017-11-19 19:03:15.876589'}"
Received: {'d': 'T3', 'c': '2017-11-19 19:03:15.876589', 'p': ' - T3 -  - T2 -  - GATEWAY - '}
Sent:     b"{'d': 'T3', 'p': '', 'c': '2017-11-19 19:03:16.719820'}"
Received: {'d': 'T3', 'c': '2017-11-19 19:03:16.719820', 'p': ' - T3 -  - T2 -  - GATEWAY - '}
Sent:     b"{'p': '', 'c': '2017-11-19 19:03:17.603143', 'd': 'T3'}"
Received: {'d': 'T3', 'c': '2017-11-19 19:03:17.603143', 'p': ' - T3 -  - T2 -  - GATEWAY - '}
Sent:     b"{'d': 'T3', 'p': '', 'c': '2017-11-19 19:03:18.449967'}"
Received: {'d': 'T3', 'c': '2017-11-19 19:03:18.449967', 'p': ' - T3 -  - T2 -  - GATEWAY - '}
Sent:     b"{'c': '2017-11-19 19:03:19.305260', 'd': 'T3', 'p': ''}"
Received: {'d': 'T3', 'c': '2017-11-19 19:03:19.305260', 'p': ' - T3 -  - T2 -  - GATEWAY - '}
Sent:     b"{'p': '', 'c': '2017-11-19 19:03:20.179648', 'd': 'T3'}"
Received: {'d': 'T3', 'c': '2017-11-19 19:03:20.179648', 'p': ' - T3 -  - T2 -  - GATEWAY - '}
Sent:     b"{'p': '', 'd': 'T3', 'c': '2017-11-19 19:03:21.057597'}"
Received: {'d': 'T3', 'c': '2017-11-19 19:03:21.057597', 'p': ' - T3 -  - T2 -  - GATEWAY - '}
Sent:     b"{'p': '', 'd': 'T3', 'c': '2017-11-19 19:03:21.930243'}"
Received: {'d': 'T3', 'c': '2017-11-19 19:03:21.930243', 'p': ' - T3 -  - T2 -  - GATEWAY - '}
Sent:     b"{'c': '2017-11-19 19:03:22.794397', 'd': 'T3', 'p': ''}"
Received: {'d': 'T3', 'c': '2017-11-19 19:03:22.794397', 'p': ' - T3 -  - T2 -  - GATEWAY - '}
Sent:     b"{'p': '', 'd': 'T3', 'c': '2017-11-19 19:03:23.623881'}"
Received: {'d': 'T3', 'c': '2017-11-19 19:03:23.623881', 'p': ' - T3 -  - T2 -  - GATEWAY - '}
Sent:     b"{'p': '', 'c': '2017-11-19 19:03:24.488794', 'd': 'T3'}"
Received: {'d': 'T3', 'c': '2017-11-19 19:03:24.488794', 'p': ' - T3 -  - T2 -  - GATEWAY - '}
Sent:     b"{'c': '2017-11-19 19:03:25.359180', 'd': 'T3', 'p': ''}"
Received: {'d': 'T3', 'c': '2017-11-19 19:03:25.359180', 'p': ' - T3 -  - T2 -  - GATEWAY - '}
