10.10.6.1 wrote: {'p': '', 'c': '2017-11-19 19:06:02.939555', 'd': 'U3'}
Time Delay: 0.31176
10.10.6.1 wrote: {'p': '', 'c': '2017-11-19 19:06:03.558178', 'd': 'U3'}
Time Delay: 0.304752
10.10.6.1 wrote: {'p': '', 'c': '2017-11-19 19:06:04.146425', 'd': 'U3'}
Time Delay: 0.319683
10.10.6.1 wrote: {'p': '', 'c': '2017-11-19 19:06:04.752048', 'd': 'U3'}
Time Delay: 0.31754
10.10.6.1 wrote: {'p': '', 'c': '2017-11-19 19:06:05.377509', 'd': 'U3'}
Time Delay: 0.32555
10.10.6.1 wrote: {'p': '', 'c': '2017-11-19 19:06:05.994152', 'd': 'U3'}
Time Delay: 0.292512
10.10.6.1 wrote: {'p': '', 'c': '2017-11-19 19:06:06.573866', 'd': 'U3'}
Time Delay: 0.324464
10.10.6.1 wrote: {'p': '', 'c': '2017-11-19 19:06:07.166497', 'd': 'U3'}
Time Delay: 0.308164
10.10.6.1 wrote: {'p': '', 'c': '2017-11-19 19:06:07.777212', 'd': 'U3'}
Time Delay: 0.311335
10.10.6.1 wrote: {'p': '', 'c': '2017-11-19 19:06:08.379221', 'd': 'U3'}
Time Delay: 0.320754
10.10.6.1 wrote: {'p': '', 'c': '2017-11-19 19:06:08.979716', 'd': 'U3'}
Time Delay: 0.318164
10.10.6.1 wrote: {'p': '', 'c': '2017-11-19 19:06:09.596440', 'd': 'U3'}
Time Delay: 0.313574
10.10.6.1 wrote: {'p': '', 'c': '2017-11-19 19:06:10.203759', 'd': 'U3'}
Time Delay: 0.318799
10.10.6.1 wrote: {'p': '', 'c': '2017-11-19 19:06:10.826996', 'd': 'U3'}
Time Delay: 0.313479
10.10.6.1 wrote: {'p': '', 'c': '2017-11-19 19:06:11.429542', 'd': 'U3'}
Time Delay: 0.311609
10.10.6.1 wrote: {'p': '', 'c': '2017-11-19 19:06:12.041392', 'd': 'U3'}
Time Delay: 0.316663
10.10.6.1 wrote: {'p': '', 'c': '2017-11-19 19:06:12.664026', 'd': 'U3'}
Time Delay: 0.309039
10.10.6.1 wrote: {'p': '', 'c': '2017-11-19 19:06:13.272179', 'd': 'U3'}
Time Delay: 0.311
10.10.6.1 wrote: {'p': '', 'c': '2017-11-19 19:06:13.880948', 'd': 'U3'}
Time Delay: 0.338982
10.10.6.1 wrote: {'p': '', 'c': '2017-11-19 19:06:14.508928', 'd': 'U3'}
Time Delay: 0.305479
10.10.6.1 wrote: {'p': '', 'c': '2017-11-19 19:06:15.110555', 'd': 'U3'}
Time Delay: 0.322592
10.10.6.1 wrote: {'p': '', 'c': '2017-11-19 19:06:15.724404', 'd': 'U3'}
Time Delay: 0.31153
10.10.6.1 wrote: {'p': '', 'c': '2017-11-19 19:06:16.339731', 'd': 'U3'}
Time Delay: 0.31729
10.10.6.1 wrote: {'p': '', 'c': '2017-11-19 19:06:16.929701', 'd': 'U3'}
Time Delay: 0.305626
10.10.6.1 wrote: {'p': '', 'c': '2017-11-19 19:06:17.536380', 'd': 'U3'}
Time Delay: 0.31519
10.10.6.1 wrote: {'p': '', 'c': '2017-11-19 19:06:18.143481', 'd': 'U3'}
Time Delay: 0.30541
10.10.6.1 wrote: {'p': '', 'c': '2017-11-19 19:06:18.751191', 'd': 'U3'}
Time Delay: 0.300203
10.10.6.1 wrote: {'p': '', 'c': '2017-11-19 19:06:19.364100', 'd': 'U3'}
Time Delay: 0.314288
10.10.6.1 wrote: {'p': '', 'c': '2017-11-19 19:06:19.968656', 'd': 'U3'}
Time Delay: 0.319604
10.10.6.1 wrote: {'p': '', 'c': '2017-11-19 19:06:20.579535', 'd': 'U3'}
Time Delay: 0.310838
10.10.6.1 wrote: {'p': '', 'c': '2017-11-19 19:06:21.172848', 'd': 'U3'}
Time Delay: 0.323815
10.10.6.1 wrote: {'p': '', 'c': '2017-11-19 19:06:21.791884', 'd': 'U3'}
Time Delay: 0.303889
10.10.6.1 wrote: {'p': '', 'c': '2017-11-19 19:06:22.397589', 'd': 'U3'}
Time Delay: 0.297932
10.10.6.1 wrote: {'p': '', 'c': '2017-11-19 19:06:23.003140', 'd': 'U3'}
Time Delay: 0.302588
10.10.6.1 wrote: {'p': '', 'c': '2017-11-19 19:06:23.599805', 'd': 'U3'}
Time Delay: 0.316745
10.10.6.1 wrote: {'p': '', 'c': '2017-11-19 19:06:24.198111', 'd': 'U3'}
Time Delay: 0.329563
10.10.6.1 wrote: {'p': '', 'c': '2017-11-19 19:06:24.847562', 'd': 'U3'}
Time Delay: 0.319714
10.10.6.1 wrote: {'p': '', 'c': '2017-11-19 19:06:25.458249', 'd': 'U3'}
Time Delay: 0.318925
10.10.6.1 wrote: {'p': '', 'c': '2017-11-19 19:06:26.064615', 'd': 'U3'}
Time Delay: 0.318331
10.10.6.1 wrote: {'p': '', 'c': '2017-11-19 19:06:26.673616', 'd': 'U3'}
Time Delay: 0.300776
10.10.6.1 wrote: {'p': '', 'c': '2017-11-19 19:06:27.257820', 'd': 'U3'}
Time Delay: 0.318885
10.10.6.1 wrote: {'p': '', 'c': '2017-11-19 19:06:27.890409', 'd': 'U3'}
Time Delay: 0.323383
10.10.6.1 wrote: {'p': '', 'c': '2017-11-19 19:06:28.497453', 'd': 'U3'}
Time Delay: 0.310024
10.10.6.1 wrote: {'p': '', 'c': '2017-11-19 19:06:29.092348', 'd': 'U3'}
Time Delay: 0.320253
10.10.6.1 wrote: {'p': '', 'c': '2017-11-19 19:06:29.705218', 'd': 'U3'}
Time Delay: 0.32025
10.10.6.1 wrote: {'p': '', 'c': '2017-11-19 19:06:30.330327', 'd': 'U3'}
Time Delay: 0.305728
10.10.6.1 wrote: {'p': '', 'c': '2017-11-19 19:06:30.925962', 'd': 'U3'}
Time Delay: 0.296555
10.10.6.1 wrote: {'p': '', 'c': '2017-11-19 19:06:31.527507', 'd': 'U3'}
Time Delay: 0.311234
10.10.6.1 wrote: {'p': '', 'c': '2017-11-19 19:06:32.126240', 'd': 'U3'}
Time Delay: 0.313387
10.10.6.1 wrote: {'p': '', 'c': '2017-11-19 19:06:32.743917', 'd': 'U3'}
Time Delay: 0.304816
10.10.6.1 wrote: {'p': '', 'c': '2017-11-19 19:06:33.350405', 'd': 'U3'}
Time Delay: 0.313559
10.10.6.1 wrote: {'p': '', 'c': '2017-11-19 19:06:33.966134', 'd': 'U3'}
Time Delay: 0.297432
10.10.6.1 wrote: {'p': '', 'c': '2017-11-19 19:06:34.553265', 'd': 'U3'}
Time Delay: 0.305559
10.10.6.1 wrote: {'p': '', 'c': '2017-11-19 19:06:35.155752', 'd': 'U3'}
Time Delay: 0.307871
10.10.6.1 wrote: {'p': '', 'c': '2017-11-19 19:06:35.747228', 'd': 'U3'}
Time Delay: 0.33108
10.10.6.1 wrote: {'p': '', 'c': '2017-11-19 19:06:36.357079', 'd': 'U3'}
Time Delay: 0.307708
10.10.6.1 wrote: {'p': '', 'c': '2017-11-19 19:06:36.958970', 'd': 'U3'}
Time Delay: 0.301497
10.10.6.1 wrote: {'p': '', 'c': '2017-11-19 19:06:37.540416', 'd': 'U3'}
Time Delay: 0.30758
10.10.6.1 wrote: {'p': '', 'c': '2017-11-19 19:06:38.127960', 'd': 'U3'}
Time Delay: 0.306343
10.10.6.1 wrote: {'p': '', 'c': '2017-11-19 19:06:38.738001', 'd': 'U3'}
Time Delay: 0.314241
10.10.6.1 wrote: {'p': '', 'c': '2017-11-19 19:06:39.360475', 'd': 'U3'}
Time Delay: 0.308423
10.10.6.1 wrote: {'p': '', 'c': '2017-11-19 19:06:39.972563', 'd': 'U3'}
Time Delay: 0.313065
10.10.6.1 wrote: {'p': '', 'c': '2017-11-19 19:06:40.591788', 'd': 'U3'}
Time Delay: 0.298462
10.10.6.1 wrote: {'p': '', 'c': '2017-11-19 19:06:41.182399', 'd': 'U3'}
Time Delay: 0.292797
10.10.6.1 wrote: {'p': '', 'c': '2017-11-19 19:06:41.759570', 'd': 'U3'}
Time Delay: 0.30455
10.10.6.1 wrote: {'p': '', 'c': '2017-11-19 19:06:42.348947', 'd': 'U3'}
Time Delay: 0.306287
10.10.6.1 wrote: {'p': '', 'c': '2017-11-19 19:06:42.949084', 'd': 'U3'}
Time Delay: 0.322073
10.10.6.1 wrote: {'p': '', 'c': '2017-11-19 19:06:43.573961', 'd': 'U3'}
Time Delay: 0.289712
10.10.6.1 wrote: {'p': '', 'c': '2017-11-19 19:06:44.154885', 'd': 'U3'}
Time Delay: 0.317944
10.10.6.1 wrote: {'p': '', 'c': '2017-11-19 19:06:44.767248', 'd': 'U3'}
Time Delay: 0.31073
10.10.6.1 wrote: {'p': '', 'c': '2017-11-19 19:06:45.379050', 'd': 'U3'}
Time Delay: 0.300856
10.10.6.1 wrote: {'p': '', 'c': '2017-11-19 19:06:45.980712', 'd': 'U3'}
Time Delay: 0.29374
10.10.6.1 wrote: {'p': '', 'c': '2017-11-19 19:06:46.586394', 'd': 'U3'}
Time Delay: 0.323154
10.10.6.1 wrote: {'p': '', 'c': '2017-11-19 19:06:47.191494', 'd': 'U3'}
Time Delay: 0.3233
10.10.6.1 wrote: {'p': '', 'c': '2017-11-19 19:06:47.798367', 'd': 'U3'}
Time Delay: 0.296982
10.10.6.1 wrote: {'p': '', 'c': '2017-11-19 19:06:48.394054', 'd': 'U3'}
Time Delay: 0.30595
10.10.6.1 wrote: {'p': '', 'c': '2017-11-19 19:06:48.982741', 'd': 'U3'}
Time Delay: 0.300148
10.10.6.1 wrote: {'p': '', 'c': '2017-11-19 19:06:49.577727', 'd': 'U3'}
Time Delay: 0.328444
10.10.6.1 wrote: {'p': '', 'c': '2017-11-19 19:06:50.210009', 'd': 'U3'}
Time Delay: 0.322888
10.10.6.1 wrote: {'p': '', 'c': '2017-11-19 19:06:50.815926', 'd': 'U3'}
Time Delay: 0.328628
10.10.6.1 wrote: {'p': '', 'c': '2017-11-19 19:06:51.437268', 'd': 'U3'}
Time Delay: 0.298321
10.10.6.1 wrote: {'p': '', 'c': '2017-11-19 19:06:52.032282', 'd': 'U3'}
Time Delay: 0.299712
10.10.6.1 wrote: {'p': '', 'c': '2017-11-19 19:06:52.635401', 'd': 'U3'}
Time Delay: 0.313138
10.10.6.1 wrote: {'p': '', 'c': '2017-11-19 19:06:53.232150', 'd': 'U3'}
Time Delay: 0.327969
10.10.6.1 wrote: {'p': '', 'c': '2017-11-19 19:06:53.842255', 'd': 'U3'}
Time Delay: 0.305972
10.10.6.1 wrote: {'p': '', 'c': '2017-11-19 19:06:54.441877', 'd': 'U3'}
Time Delay: 0.322391
10.10.6.1 wrote: {'p': '', 'c': '2017-11-19 19:06:55.041569', 'd': 'U3'}
Time Delay: 0.315009
10.10.6.1 wrote: {'p': '', 'c': '2017-11-19 19:06:55.658216', 'd': 'U3'}
Time Delay: 0.317346
10.10.6.1 wrote: {'p': '', 'c': '2017-11-19 19:06:56.264782', 'd': 'U3'}
Time Delay: 0.317393
10.10.6.1 wrote: {'p': '', 'c': '2017-11-19 19:06:56.881436', 'd': 'U3'}
Time Delay: 0.299653
10.10.6.1 wrote: {'p': '', 'c': '2017-11-19 19:06:57.485663', 'd': 'U3'}
Time Delay: 0.323549
10.10.6.1 wrote: {'p': '', 'c': '2017-11-19 19:06:58.106239', 'd': 'U3'}
Time Delay: 0.310028
10.10.6.1 wrote: {'p': '', 'c': '2017-11-19 19:06:58.723990', 'd': 'U3'}
Time Delay: 0.311813
10.10.6.1 wrote: {'p': '', 'c': '2017-11-19 19:06:59.335846', 'd': 'U3'}
Time Delay: 0.331077
10.10.6.1 wrote: {'p': '', 'c': '2017-11-19 19:06:59.968740', 'd': 'U3'}
Time Delay: 0.30397
10.10.6.1 wrote: {'p': '', 'c': '2017-11-19 19:07:00.570015', 'd': 'U3'}
Time Delay: 0.313643
10.10.6.1 wrote: {'p': '', 'c': '2017-11-19 19:07:01.181224', 'd': 'U3'}
Time Delay: 0.31926
10.10.6.1 wrote: {'p': '', 'c': '2017-11-19 19:07:01.791288', 'd': 'U3'}
Time Delay: 0.310528
10.10.6.1 wrote: {'p': '', 'c': '2017-11-19 19:07:02.396572', 'd': 'U3'}
Time Delay: 0.308635
10.10.6.1 wrote: {'p': '', 'c': '2017-11-19 19:07:03.007169', 'd': 'U3'}
Time Delay: 0.319228
