Sent:     b"{'d': 'U3', 'p': '', 'c': '2017-11-19 18:40:12.980162'}"
Received: {'d': 'U3', 'p': ' - U3 -  - U2 -  - GATEWAY - ', 'c': '2017-11-19 18:40:12.980162'}
Sent:     b"{'c': '2017-11-19 18:40:13.490528', 'p': '', 'd': 'U3'}"
Received: {'d': 'U3', 'p': ' - U3 -  - U2 -  - GATEWAY - ', 'c': '2017-11-19 18:40:13.490528'}
Sent:     b"{'d': 'U3', 'c': '2017-11-19 18:40:13.842537', 'p': ''}"
Received: {'d': 'U3', 'p': ' - U3 -  - U2 -  - GATEWAY - ', 'c': '2017-11-19 18:40:13.842537'}
Sent:     b"{'p': '', 'd': 'U3', 'c': '2017-11-19 18:40:14.206120'}"
Received: {'d': 'U3', 'p': ' - U3 -  - U2 -  - GATEWAY - ', 'c': '2017-11-19 18:40:14.206120'}
Sent:     b"{'p': '', 'd': 'U3', 'c': '2017-11-19 18:40:14.558686'}"
Received: {'d': 'U3', 'p': ' - U3 -  - U2 -  - GATEWAY - ', 'c': '2017-11-19 18:40:14.558686'}
Sent:     b"{'c': '2017-11-19 18:40:14.923713', 'p': '', 'd': 'U3'}"
Received: {'d': 'U3', 'p': ' - U3 -  - U2 -  - GATEWAY - ', 'c': '2017-11-19 18:40:14.923713'}
Sent:     b"{'p': '', 'd': 'U3', 'c': '2017-11-19 18:40:15.279620'}"
Received: {'d': 'U3', 'p': ' - U3 -  - U2 -  - GATEWAY - ', 'c': '2017-11-19 18:40:15.279620'}
Sent:     b"{'d': 'U3', 'c': '2017-11-19 18:40:15.649547', 'p': ''}"
Received: {'d': 'U3', 'p': ' - U3 -  - U2 -  - GATEWAY - ', 'c': '2017-11-19 18:40:15.649547'}
Sent:     b"{'p': '', 'd': 'U3', 'c': '2017-11-19 18:40:16.032475'}"
Received: {'d': 'U3', 'p': ' - U3 -  - U2 -  - GATEWAY - ', 'c': '2017-11-19 18:40:16.032475'}
Sent:     b"{'c': '2017-11-19 18:40:16.380514', 'd': 'U3', 'p': ''}"
Received: {'d': 'U3', 'p': ' - U3 -  - U2 -  - GATEWAY - ', 'c': '2017-11-19 18:40:16.380514'}
Sent:     b"{'p': '', 'c': '2017-11-19 18:40:16.769059', 'd': 'U3'}"
Received: {'d': 'U3', 'p': ' - U3 -  - U2 -  - GATEWAY - ', 'c': '2017-11-19 18:40:16.769059'}
Sent:     b"{'c': '2017-11-19 18:40:17.146887', 'p': '', 'd': 'U3'}"
Received: {'d': 'U3', 'p': ' - U3 -  - U2 -  - GATEWAY - ', 'c': '2017-11-19 18:40:17.146887'}
Sent:     b"{'c': '2017-11-19 18:40:17.503959', 'd': 'U3', 'p': ''}"
Received: {'d': 'U3', 'p': ' - U3 -  - U2 -  - GATEWAY - ', 'c': '2017-11-19 18:40:17.503959'}
Sent:     b"{'p': '', 'c': '2017-11-19 18:40:17.870294', 'd': 'U3'}"
Received: {'d': 'U3', 'p': ' - U3 -  - U2 -  - GATEWAY - ', 'c': '2017-11-19 18:40:17.870294'}
Sent:     b"{'c': '2017-11-19 18:40:18.239355', 'd': 'U3', 'p': ''}"
Received: {'d': 'U3', 'p': ' - U3 -  - U2 -  - GATEWAY - ', 'c': '2017-11-19 18:40:18.239355'}
Sent:     b"{'p': '', 'd': 'U3', 'c': '2017-11-19 18:40:18.610727'}"
Received: {'d': 'U3', 'p': ' - U3 -  - U2 -  - GATEWAY - ', 'c': '2017-11-19 18:40:18.610727'}
Sent:     b"{'c': '2017-11-19 18:40:18.949347', 'd': 'U3', 'p': ''}"
Received: {'d': 'U3', 'p': ' - U3 -  - U2 -  - GATEWAY - ', 'c': '2017-11-19 18:40:18.949347'}
Sent:     b"{'c': '2017-11-19 18:40:19.317045', 'p': '', 'd': 'U3'}"
Received: {'d': 'U3', 'p': ' - U3 -  - U2 -  - GATEWAY - ', 'c': '2017-11-19 18:40:19.317045'}
Sent:     b"{'d': 'U3', 'c': '2017-11-19 18:40:19.655008', 'p': ''}"
Received: {'d': 'U3', 'p': ' - U3 -  - U2 -  - GATEWAY - ', 'c': '2017-11-19 18:40:19.655008'}
Sent:     b"{'d': 'U3', 'c': '2017-11-19 18:40:20.025236', 'p': ''}"
Received: {'d': 'U3', 'p': ' - U3 -  - U2 -  - GATEWAY - ', 'c': '2017-11-19 18:40:20.025236'}
Sent:     b"{'p': '', 'c': '2017-11-19 18:40:20.371679', 'd': 'U3'}"
Received: {'d': 'U3', 'p': ' - U3 -  - U2 -  - GATEWAY - ', 'c': '2017-11-19 18:40:20.371679'}
Sent:     b"{'c': '2017-11-19 18:40:20.733949', 'd': 'U3', 'p': ''}"
Received: {'d': 'U3', 'p': ' - U3 -  - U2 -  - GATEWAY - ', 'c': '2017-11-19 18:40:20.733949'}
Sent:     b"{'p': '', 'c': '2017-11-19 18:40:21.111288', 'd': 'U3'}"
Received: {'d': 'U3', 'p': ' - U3 -  - U2 -  - GATEWAY - ', 'c': '2017-11-19 18:40:21.111288'}
Sent:     b"{'d': 'U3', 'p': '', 'c': '2017-11-19 18:40:21.491406'}"
Received: {'d': 'U3', 'p': ' - U3 -  - U2 -  - GATEWAY - ', 'c': '2017-11-19 18:40:21.491406'}
Sent:     b"{'d': 'U3', 'c': '2017-11-19 18:40:21.858753', 'p': ''}"
Received: {'d': 'U3', 'p': ' - U3 -  - U2 -  - GATEWAY - ', 'c': '2017-11-19 18:40:21.858753'}
Sent:     b"{'d': 'U3', 'p': '', 'c': '2017-11-19 18:40:22.216804'}"
Received: {'d': 'U3', 'p': ' - U3 -  - U2 -  - GATEWAY - ', 'c': '2017-11-19 18:40:22.216804'}
Sent:     b"{'p': '', 'c': '2017-11-19 18:40:22.603965', 'd': 'U3'}"
Received: {'d': 'U3', 'p': ' - U3 -  - U2 -  - GATEWAY - ', 'c': '2017-11-19 18:40:22.603965'}
Sent:     b"{'d': 'U3', 'c': '2017-11-19 18:40:22.979312', 'p': ''}"
Received: {'d': 'U3', 'p': ' - U3 -  - U2 -  - GATEWAY - ', 'c': '2017-11-19 18:40:22.979312'}
Sent:     b"{'c': '2017-11-19 18:40:23.331427', 'p': '', 'd': 'U3'}"
Received: {'d': 'U3', 'p': ' - U3 -  - U2 -  - GATEWAY - ', 'c': '2017-11-19 18:40:23.331427'}
Sent:     b"{'p': '', 'd': 'U3', 'c': '2017-11-19 18:40:23.686664'}"
Received: {'d': 'U3', 'p': ' - U3 -  - U2 -  - GATEWAY - ', 'c': '2017-11-19 18:40:23.686664'}
Sent:     b"{'c': '2017-11-19 18:40:24.037695', 'd': 'U3', 'p': ''}"
Received: {'d': 'U3', 'p': ' - U3 -  - U2 -  - GATEWAY - ', 'c': '2017-11-19 18:40:24.037695'}
Sent:     b"{'d': 'U3', 'p': '', 'c': '2017-11-19 18:40:24.392688'}"
Received: {'d': 'U3', 'p': ' - U3 -  - U2 -  - GATEWAY - ', 'c': '2017-11-19 18:40:24.392688'}
Sent:     b"{'p': '', 'd': 'U3', 'c': '2017-11-19 18:40:24.753607'}"
Received: {'d': 'U3', 'p': ' - U3 -  - U2 -  - GATEWAY - ', 'c': '2017-11-19 18:40:24.753607'}
Sent:     b"{'c': '2017-11-19 18:40:25.121646', 'd': 'U3', 'p': ''}"
Received: {'d': 'U3', 'p': ' - U3 -  - U2 -  - GATEWAY - ', 'c': '2017-11-19 18:40:25.121646'}
Sent:     b"{'p': '', 'd': 'U3', 'c': '2017-11-19 18:40:25.492580'}"
Received: {'d': 'U3', 'p': ' - U3 -  - U2 -  - GATEWAY - ', 'c': '2017-11-19 18:40:25.492580'}
Sent:     b"{'p': '', 'c': '2017-11-19 18:40:25.855728', 'd': 'U3'}"
Received: {'d': 'U3', 'p': ' - U3 -  - U2 -  - GATEWAY - ', 'c': '2017-11-19 18:40:25.855728'}
Sent:     b"{'d': 'U3', 'p': '', 'c': '2017-11-19 18:40:26.214808'}"
Received: {'d': 'U3', 'p': ' - U3 -  - U2 -  - GATEWAY - ', 'c': '2017-11-19 18:40:26.214808'}
Sent:     b"{'p': '', 'd': 'U3', 'c': '2017-11-19 18:40:26.569036'}"
Received: {'d': 'U3', 'p': ' - U3 -  - U2 -  - GATEWAY - ', 'c': '2017-11-19 18:40:26.569036'}
Sent:     b"{'d': 'U3', 'p': '', 'c': '2017-11-19 18:40:26.928699'}"
Received: {'d': 'U3', 'p': ' - U3 -  - U2 -  - GATEWAY - ', 'c': '2017-11-19 18:40:26.928699'}
Sent:     b"{'d': 'U3', 'p': '', 'c': '2017-11-19 18:40:27.306217'}"
Received: {'d': 'U3', 'p': ' - U3 -  - U2 -  - GATEWAY - ', 'c': '2017-11-19 18:40:27.306217'}
Sent:     b"{'d': 'U3', 'p': '', 'c': '2017-11-19 18:40:27.701822'}"
Received: {'d': 'U3', 'p': ' - U3 -  - U2 -  - GATEWAY - ', 'c': '2017-11-19 18:40:27.701822'}
Sent:     b"{'d': 'U3', 'p': '', 'c': '2017-11-19 18:40:28.073567'}"
Received: {'d': 'U3', 'p': ' - U3 -  - U2 -  - GATEWAY - ', 'c': '2017-11-19 18:40:28.073567'}
Sent:     b"{'c': '2017-11-19 18:40:28.438024', 'p': '', 'd': 'U3'}"
Received: {'d': 'U3', 'p': ' - U3 -  - U2 -  - GATEWAY - ', 'c': '2017-11-19 18:40:28.438024'}
Sent:     b"{'p': '', 'c': '2017-11-19 18:40:28.803992', 'd': 'U3'}"
Received: {'d': 'U3', 'p': ' - U3 -  - U2 -  - GATEWAY - ', 'c': '2017-11-19 18:40:28.803992'}
Sent:     b"{'p': '', 'c': '2017-11-19 18:40:29.173632', 'd': 'U3'}"
Received: {'d': 'U3', 'p': ' - U3 -  - U2 -  - GATEWAY - ', 'c': '2017-11-19 18:40:29.173632'}
Sent:     b"{'d': 'U3', 'p': '', 'c': '2017-11-19 18:40:29.538789'}"
Received: {'d': 'U3', 'p': ' - U3 -  - U2 -  - GATEWAY - ', 'c': '2017-11-19 18:40:29.538789'}
Sent:     b"{'c': '2017-11-19 18:40:29.886444', 'd': 'U3', 'p': ''}"
Received: {'d': 'U3', 'p': ' - U3 -  - U2 -  - GATEWAY - ', 'c': '2017-11-19 18:40:29.886444'}
Sent:     b"{'d': 'U3', 'p': '', 'c': '2017-11-19 18:40:30.258166'}"
Received: {'d': 'U3', 'p': ' - U3 -  - U2 -  - GATEWAY - ', 'c': '2017-11-19 18:40:30.258166'}
Sent:     b"{'d': 'U3', 'c': '2017-11-19 18:40:30.614897', 'p': ''}"
Received: {'d': 'U3', 'p': ' - U3 -  - U2 -  - GATEWAY - ', 'c': '2017-11-19 18:40:30.614897'}
Sent:     b"{'d': 'U3', 'p': '', 'c': '2017-11-19 18:40:30.965842'}"
Received: {'d': 'U3', 'p': ' - U3 -  - U2 -  - GATEWAY - ', 'c': '2017-11-19 18:40:30.965842'}
Sent:     b"{'c': '2017-11-19 18:40:31.328804', 'd': 'U3', 'p': ''}"
Received: {'d': 'U3', 'p': ' - U3 -  - U2 -  - GATEWAY - ', 'c': '2017-11-19 18:40:31.328804'}
Sent:     b"{'p': '', 'c': '2017-11-19 18:40:31.686745', 'd': 'U3'}"
Received: {'d': 'U3', 'p': ' - U3 -  - U2 -  - GATEWAY - ', 'c': '2017-11-19 18:40:31.686745'}
Sent:     b"{'d': 'U3', 'c': '2017-11-19 18:40:32.059649', 'p': ''}"
Received: {'d': 'U3', 'p': ' - U3 -  - U2 -  - GATEWAY - ', 'c': '2017-11-19 18:40:32.059649'}
Sent:     b"{'c': '2017-11-19 18:40:32.419928', 'd': 'U3', 'p': ''}"
Received: {'d': 'U3', 'p': ' - U3 -  - U2 -  - GATEWAY - ', 'c': '2017-11-19 18:40:32.419928'}
Sent:     b"{'c': '2017-11-19 18:40:32.825359', 'p': '', 'd': 'U3'}"
Received: {'d': 'U3', 'p': ' - U3 -  - U2 -  - GATEWAY - ', 'c': '2017-11-19 18:40:32.825359'}
Sent:     b"{'d': 'U3', 'p': '', 'c': '2017-11-19 18:40:33.174487'}"
Received: {'d': 'U3', 'p': ' - U3 -  - U2 -  - GATEWAY - ', 'c': '2017-11-19 18:40:33.174487'}
Sent:     b"{'p': '', 'c': '2017-11-19 18:40:33.571985', 'd': 'U3'}"
Received: {'d': 'U3', 'p': ' - U3 -  - U2 -  - GATEWAY - ', 'c': '2017-11-19 18:40:33.571985'}
Sent:     b"{'c': '2017-11-19 18:40:33.945451', 'p': '', 'd': 'U3'}"
Received: {'d': 'U3', 'p': ' - U3 -  - U2 -  - GATEWAY - ', 'c': '2017-11-19 18:40:33.945451'}
Sent:     b"{'p': '', 'c': '2017-11-19 18:40:34.311901', 'd': 'U3'}"
Received: {'d': 'U3', 'p': ' - U3 -  - U2 -  - GATEWAY - ', 'c': '2017-11-19 18:40:34.311901'}
Sent:     b"{'c': '2017-11-19 18:40:34.680808', 'p': '', 'd': 'U3'}"
Received: {'d': 'U3', 'p': ' - U3 -  - U2 -  - GATEWAY - ', 'c': '2017-11-19 18:40:34.680808'}
Sent:     b"{'d': 'U3', 'p': '', 'c': '2017-11-19 18:40:35.044893'}"
Received: {'d': 'U3', 'p': ' - U3 -  - U2 -  - GATEWAY - ', 'c': '2017-11-19 18:40:35.044893'}
Sent:     b"{'d': 'U3', 'c': '2017-11-19 18:40:35.402171', 'p': ''}"
Received: {'d': 'U3', 'p': ' - U3 -  - U2 -  - GATEWAY - ', 'c': '2017-11-19 18:40:35.402171'}
Sent:     b"{'p': '', 'c': '2017-11-19 18:40:35.759125', 'd': 'U3'}"
Received: {'d': 'U3', 'p': ' - U3 -  - U2 -  - GATEWAY - ', 'c': '2017-11-19 18:40:35.759125'}
Sent:     b"{'p': '', 'c': '2017-11-19 18:40:36.143644', 'd': 'U3'}"
Received: {'d': 'U3', 'p': ' - U3 -  - U2 -  - GATEWAY - ', 'c': '2017-11-19 18:40:36.143644'}
Sent:     b"{'d': 'U3', 'c': '2017-11-19 18:40:36.507089', 'p': ''}"
Received: {'d': 'U3', 'p': ' - U3 -  - U2 -  - GATEWAY - ', 'c': '2017-11-19 18:40:36.507089'}
Sent:     b"{'d': 'U3', 'p': '', 'c': '2017-11-19 18:40:36.869261'}"
Received: {'d': 'U3', 'p': ' - U3 -  - U2 -  - GATEWAY - ', 'c': '2017-11-19 18:40:36.869261'}
Sent:     b"{'d': 'U3', 'p': '', 'c': '2017-11-19 18:40:37.242206'}"
Received: {'d': 'U3', 'p': ' - U3 -  - U2 -  - GATEWAY - ', 'c': '2017-11-19 18:40:37.242206'}
Sent:     b"{'c': '2017-11-19 18:40:37.593342', 'd': 'U3', 'p': ''}"
Received: {'d': 'U3', 'p': ' - U3 -  - U2 -  - GATEWAY - ', 'c': '2017-11-19 18:40:37.593342'}
Sent:     b"{'p': '', 'c': '2017-11-19 18:40:37.976183', 'd': 'U3'}"
Received: {'d': 'U3', 'p': ' - U3 -  - U2 -  - GATEWAY - ', 'c': '2017-11-19 18:40:37.976183'}
Sent:     b"{'d': 'U3', 'c': '2017-11-19 18:40:38.346315', 'p': ''}"
Received: {'d': 'U3', 'p': ' - U3 -  - U2 -  - GATEWAY - ', 'c': '2017-11-19 18:40:38.346315'}
Sent:     b"{'p': '', 'd': 'U3', 'c': '2017-11-19 18:40:38.730069'}"
Received: {'d': 'U3', 'p': ' - U3 -  - U2 -  - GATEWAY - ', 'c': '2017-11-19 18:40:38.730069'}
Sent:     b"{'p': '', 'c': '2017-11-19 18:40:39.096812', 'd': 'U3'}"
Received: {'d': 'U3', 'p': ' - U3 -  - U2 -  - GATEWAY - ', 'c': '2017-11-19 18:40:39.096812'}
Sent:     b"{'c': '2017-11-19 18:40:39.446982', 'd': 'U3', 'p': ''}"
Received: {'d': 'U3', 'p': ' - U3 -  - U2 -  - GATEWAY - ', 'c': '2017-11-19 18:40:39.446982'}
Sent:     b"{'c': '2017-11-19 18:40:39.802421', 'd': 'U3', 'p': ''}"
Received: {'d': 'U3', 'p': ' - U3 -  - U2 -  - GATEWAY - ', 'c': '2017-11-19 18:40:39.802421'}
Sent:     b"{'c': '2017-11-19 18:40:40.150133', 'd': 'U3', 'p': ''}"
Received: {'d': 'U3', 'p': ' - U3 -  - U2 -  - GATEWAY - ', 'c': '2017-11-19 18:40:40.150133'}
Sent:     b"{'c': '2017-11-19 18:40:40.507412', 'p': '', 'd': 'U3'}"
Received: {'d': 'U3', 'p': ' - U3 -  - U2 -  - GATEWAY - ', 'c': '2017-11-19 18:40:40.507412'}
Sent:     b"{'d': 'U3', 'c': '2017-11-19 18:40:40.846795', 'p': ''}"
Received: {'d': 'U3', 'p': ' - U3 -  - U2 -  - GATEWAY - ', 'c': '2017-11-19 18:40:40.846795'}
Sent:     b"{'d': 'U3', 'c': '2017-11-19 18:40:41.205009', 'p': ''}"
Received: {'d': 'U3', 'p': ' - U3 -  - U2 -  - GATEWAY - ', 'c': '2017-11-19 18:40:41.205009'}
Sent:     b"{'p': '', 'c': '2017-11-19 18:40:41.560025', 'd': 'U3'}"
Received: {'d': 'U3', 'p': ' - U3 -  - U2 -  - GATEWAY - ', 'c': '2017-11-19 18:40:41.560025'}
Sent:     b"{'p': '', 'c': '2017-11-19 18:40:41.925262', 'd': 'U3'}"
Received: {'d': 'U3', 'p': ' - U3 -  - U2 -  - GATEWAY - ', 'c': '2017-11-19 18:40:41.925262'}
Sent:     b"{'d': 'U3', 'c': '2017-11-19 18:40:42.289344', 'p': ''}"
Received: {'d': 'U3', 'p': ' - U3 -  - U2 -  - GATEWAY - ', 'c': '2017-11-19 18:40:42.289344'}
Sent:     b"{'p': '', 'd': 'U3', 'c': '2017-11-19 18:40:42.616768'}"
Received: {'d': 'U3', 'p': ' - U3 -  - U2 -  - GATEWAY - ', 'c': '2017-11-19 18:40:42.616768'}
Sent:     b"{'p': '', 'c': '2017-11-19 18:40:42.963191', 'd': 'U3'}"
Received: {'d': 'U3', 'p': ' - U3 -  - U2 -  - GATEWAY - ', 'c': '2017-11-19 18:40:42.963191'}
Sent:     b"{'c': '2017-11-19 18:40:43.308472', 'd': 'U3', 'p': ''}"
Received: {'d': 'U3', 'p': ' - U3 -  - U2 -  - GATEWAY - ', 'c': '2017-11-19 18:40:43.308472'}
Sent:     b"{'d': 'U3', 'c': '2017-11-19 18:40:43.667815', 'p': ''}"
Received: {'d': 'U3', 'p': ' - U3 -  - U2 -  - GATEWAY - ', 'c': '2017-11-19 18:40:43.667815'}
Sent:     b"{'p': '', 'd': 'U3', 'c': '2017-11-19 18:40:44.029944'}"
Received: {'d': 'U3', 'p': ' - U3 -  - U2 -  - GATEWAY - ', 'c': '2017-11-19 18:40:44.029944'}
Sent:     b"{'c': '2017-11-19 18:40:44.396631', 'p': '', 'd': 'U3'}"
Received: {'d': 'U3', 'p': ' - U3 -  - U2 -  - GATEWAY - ', 'c': '2017-11-19 18:40:44.396631'}
Sent:     b"{'c': '2017-11-19 18:40:44.751057', 'd': 'U3', 'p': ''}"
Received: {'d': 'U3', 'p': ' - U3 -  - U2 -  - GATEWAY - ', 'c': '2017-11-19 18:40:44.751057'}
Sent:     b"{'c': '2017-11-19 18:40:45.150358', 'p': '', 'd': 'U3'}"
Received: {'d': 'U3', 'p': ' - U3 -  - U2 -  - GATEWAY - ', 'c': '2017-11-19 18:40:45.150358'}
Sent:     b"{'c': '2017-11-19 18:40:45.510614', 'd': 'U3', 'p': ''}"
Received: {'d': 'U3', 'p': ' - U3 -  - U2 -  - GATEWAY - ', 'c': '2017-11-19 18:40:45.510614'}
Sent:     b"{'c': '2017-11-19 18:40:45.872535', 'p': '', 'd': 'U3'}"
Received: {'d': 'U3', 'p': ' - U3 -  - U2 -  - GATEWAY - ', 'c': '2017-11-19 18:40:45.872535'}
Sent:     b"{'c': '2017-11-19 18:40:46.233422', 'p': '', 'd': 'U3'}"
Received: {'d': 'U3', 'p': ' - U3 -  - U2 -  - GATEWAY - ', 'c': '2017-11-19 18:40:46.233422'}
Sent:     b"{'c': '2017-11-19 18:40:46.578786', 'd': 'U3', 'p': ''}"
Received: {'d': 'U3', 'p': ' - U3 -  - U2 -  - GATEWAY - ', 'c': '2017-11-19 18:40:46.578786'}
Sent:     b"{'p': '', 'c': '2017-11-19 18:40:46.960372', 'd': 'U3'}"
Received: {'d': 'U3', 'p': ' - U3 -  - U2 -  - GATEWAY - ', 'c': '2017-11-19 18:40:46.960372'}
Sent:     b"{'c': '2017-11-19 18:40:47.304660', 'd': 'U3', 'p': ''}"
Received: {'d': 'U3', 'p': ' - U3 -  - U2 -  - GATEWAY - ', 'c': '2017-11-19 18:40:47.304660'}
Sent:     b"{'c': '2017-11-19 18:40:47.664595', 'd': 'U3', 'p': ''}"
Received: {'d': 'U3', 'p': ' - U3 -  - U2 -  - GATEWAY - ', 'c': '2017-11-19 18:40:47.664595'}
Sent:     b"{'p': '', 'd': 'U3', 'c': '2017-11-19 18:40:48.040002'}"
Received: {'d': 'U3', 'p': ' - U3 -  - U2 -  - GATEWAY - ', 'c': '2017-11-19 18:40:48.040002'}
Sent:     b"{'c': '2017-11-19 18:40:48.404913', 'd': 'U3', 'p': ''}"
Received: {'d': 'U3', 'p': ' - U3 -  - U2 -  - GATEWAY - ', 'c': '2017-11-19 18:40:48.404913'}
Sent:     b"{'d': 'U3', 'c': '2017-11-19 18:40:48.750342', 'p': ''}"
Received: {'d': 'U3', 'p': ' - U3 -  - U2 -  - GATEWAY - ', 'c': '2017-11-19 18:40:48.750342'}
Sent:     b"{'d': 'U3', 'c': '2017-11-19 18:40:49.138407', 'p': ''}"
Received: {'d': 'U3', 'p': ' - U3 -  - U2 -  - GATEWAY - ', 'c': '2017-11-19 18:40:49.138407'}
