10.10.5.1 wrote: {'p': '', 'c': '2017-11-19 18:23:04.173974', 'd': 'T3'}
Time Delay: 0.297203
10.10.5.1 wrote: {'p': '', 'd': 'T3', 'c': '2017-11-19 18:23:04.676629'}
Time Delay: 0.272905
10.10.5.1 wrote: {'p': '', 'd': 'T3', 'c': '2017-11-19 18:23:05.156316'}
Time Delay: 0.273264
10.10.5.1 wrote: {'p': '', 'c': '2017-11-19 18:23:05.639365', 'd': 'T3'}
Time Delay: 0.275573
10.10.5.1 wrote: {'p': '', 'c': '2017-11-19 18:23:06.113860', 'd': 'T3'}
Time Delay: 0.272003
10.10.5.1 wrote: {'p': '', 'c': '2017-11-19 18:23:06.592112', 'd': 'T3'}
Time Delay: 0.262405
10.10.5.1 wrote: {'p': '', 'c': '2017-11-19 18:23:07.056737', 'd': 'T3'}
Time Delay: 0.268856
10.10.5.1 wrote: {'p': '', 'd': 'T3', 'c': '2017-11-19 18:23:07.517246'}
Time Delay: 0.286586
10.10.5.1 wrote: {'p': '', 'c': '2017-11-19 18:23:08.004469', 'd': 'T3'}
Time Delay: 0.301871
10.10.5.1 wrote: {'p': '', 'c': '2017-11-19 18:23:08.526102', 'd': 'T3'}
Time Delay: 0.266642
10.10.5.1 wrote: {'p': '', 'd': 'T3', 'c': '2017-11-19 18:23:09.002411'}
Time Delay: 0.283694
10.10.5.1 wrote: {'p': '', 'd': 'T3', 'c': '2017-11-19 18:23:09.517313'}
Time Delay: 0.302085
10.10.5.1 wrote: {'p': '', 'c': '2017-11-19 18:23:10.031409', 'd': 'T3'}
Time Delay: 0.272718
10.10.5.1 wrote: {'p': '', 'c': '2017-11-19 18:23:10.515295', 'd': 'T3'}
Time Delay: 0.262484
10.10.5.1 wrote: {'p': '', 'c': '2017-11-19 18:23:10.984457', 'd': 'T3'}
Time Delay: 0.27447
10.10.5.1 wrote: {'p': '', 'd': 'T3', 'c': '2017-11-19 18:23:11.476993'}
Time Delay: 0.28906
10.10.5.1 wrote: {'p': '', 'd': 'T3', 'c': '2017-11-19 18:23:11.965118'}
Time Delay: 0.305483
10.10.5.1 wrote: {'p': '', 'c': '2017-11-19 18:23:12.491898', 'd': 'T3'}
Time Delay: 0.27399
10.10.5.1 wrote: {'p': '', 'd': 'T3', 'c': '2017-11-19 18:23:12.969300'}
Time Delay: 0.298998
10.10.5.1 wrote: {'p': '', 'c': '2017-11-19 18:23:13.487907', 'd': 'T3'}
Time Delay: 0.294043
10.10.5.1 wrote: {'p': '', 'd': 'T3', 'c': '2017-11-19 18:23:13.998123'}
Time Delay: 0.292157
10.10.5.1 wrote: {'p': '', 'd': 'T3', 'c': '2017-11-19 18:23:14.542781'}
Time Delay: 0.290818
10.10.5.1 wrote: {'p': '', 'd': 'T3', 'c': '2017-11-19 18:23:15.053125'}
Time Delay: 0.248148
10.10.5.1 wrote: {'p': '', 'c': '2017-11-19 18:23:15.496586', 'd': 'T3'}
Time Delay: 0.282525
10.10.5.1 wrote: {'p': '', 'd': 'T3', 'c': '2017-11-19 18:23:15.991877'}
Time Delay: 0.263813
10.10.5.1 wrote: {'p': '', 'c': '2017-11-19 18:23:16.469406', 'd': 'T3'}
Time Delay: 0.289786
10.10.5.1 wrote: {'p': '', 'c': '2017-11-19 18:23:16.965005', 'd': 'T3'}
Time Delay: 0.290237
10.10.5.1 wrote: {'p': '', 'd': 'T3', 'c': '2017-11-19 18:23:17.471941'}
Time Delay: 0.262321
10.10.5.1 wrote: {'p': '', 'd': 'T3', 'c': '2017-11-19 18:23:17.937570'}
Time Delay: 0.290565
10.10.5.1 wrote: {'p': '', 'c': '2017-11-19 18:23:18.447965', 'd': 'T3'}
Time Delay: 0.269324
10.10.5.1 wrote: {'p': '', 'c': '2017-11-19 18:23:18.937392', 'd': 'T3'}
Time Delay: 0.262187
10.10.5.1 wrote: {'p': '', 'c': '2017-11-19 18:23:19.409562', 'd': 'T3'}
Time Delay: 0.277098
10.10.5.1 wrote: {'p': '', 'd': 'T3', 'c': '2017-11-19 18:23:19.893106'}
Time Delay: 0.279861
10.10.5.1 wrote: {'p': '', 'c': '2017-11-19 18:23:20.388515', 'd': 'T3'}
Time Delay: 0.299022
10.10.5.1 wrote: {'p': '', 'd': 'T3', 'c': '2017-11-19 18:23:20.902140'}
Time Delay: 0.321423
10.10.5.1 wrote: {'p': '', 'c': '2017-11-19 18:23:21.426597', 'd': 'T3'}
Time Delay: 0.264117
10.10.5.1 wrote: {'p': '', 'd': 'T3', 'c': '2017-11-19 18:23:21.890293'}
Time Delay: 0.270514
10.10.5.1 wrote: {'p': '', 'c': '2017-11-19 18:23:22.368146', 'd': 'T3'}
Time Delay: 0.278993
10.10.5.1 wrote: {'p': '', 'c': '2017-11-19 18:23:22.869158', 'd': 'T3'}
Time Delay: 0.271358
10.10.5.1 wrote: {'p': '', 'c': '2017-11-19 18:23:23.353539', 'd': 'T3'}
Time Delay: 0.288028
10.10.5.1 wrote: {'p': '', 'd': 'T3', 'c': '2017-11-19 18:23:23.846162'}
Time Delay: 0.281752
10.10.5.1 wrote: {'p': '', 'd': 'T3', 'c': '2017-11-19 18:23:24.340714'}
Time Delay: 0.251063
10.10.5.1 wrote: {'p': '', 'd': 'T3', 'c': '2017-11-19 18:23:24.813177'}
Time Delay: 0.274707
10.10.5.1 wrote: {'p': '', 'd': 'T3', 'c': '2017-11-19 18:23:25.317950'}
Time Delay: 0.292943
10.10.5.1 wrote: {'p': '', 'c': '2017-11-19 18:23:25.840023', 'd': 'T3'}
Time Delay: 0.288655
10.10.5.1 wrote: {'p': '', 'c': '2017-11-19 18:23:26.329334', 'd': 'T3'}
Time Delay: 0.285771
10.10.5.1 wrote: {'p': '', 'd': 'T3', 'c': '2017-11-19 18:23:26.831363'}
Time Delay: 0.278201
10.10.5.1 wrote: {'p': '', 'd': 'T3', 'c': '2017-11-19 18:23:27.314731'}
Time Delay: 0.300138
10.10.5.1 wrote: {'p': '', 'd': 'T3', 'c': '2017-11-19 18:23:27.824414'}
Time Delay: 0.290097
10.10.5.1 wrote: {'p': '', 'd': 'T3', 'c': '2017-11-19 18:23:28.338496'}
Time Delay: 0.27668
10.10.5.1 wrote: {'p': '', 'c': '2017-11-19 18:23:28.831527', 'd': 'T3'}
Time Delay: 0.284546
10.10.5.1 wrote: {'p': '', 'd': 'T3', 'c': '2017-11-19 18:23:29.323159'}
Time Delay: 0.306702
10.10.5.1 wrote: {'p': '', 'c': '2017-11-19 18:23:29.842381', 'd': 'T3'}
Time Delay: 0.256566
10.10.5.1 wrote: {'p': '', 'd': 'T3', 'c': '2017-11-19 18:23:30.327524'}
Time Delay: 0.268254
10.10.5.1 wrote: {'p': '', 'c': '2017-11-19 18:23:30.807222', 'd': 'T3'}
Time Delay: 0.276558
10.10.5.1 wrote: {'p': '', 'd': 'T3', 'c': '2017-11-19 18:23:31.287418'}
Time Delay: 0.256814
10.10.5.1 wrote: {'p': '', 'c': '2017-11-19 18:23:31.753292', 'd': 'T3'}
Time Delay: 0.262858
10.10.5.1 wrote: {'p': '', 'd': 'T3', 'c': '2017-11-19 18:23:32.234531'}
Time Delay: 0.288492
10.10.5.1 wrote: {'p': '', 'd': 'T3', 'c': '2017-11-19 18:23:32.731420'}
Time Delay: 0.2726
10.10.5.1 wrote: {'p': '', 'd': 'T3', 'c': '2017-11-19 18:23:33.217280'}
Time Delay: 0.275816
10.10.5.1 wrote: {'p': '', 'c': '2017-11-19 18:23:33.707713', 'd': 'T3'}
Time Delay: 0.269306
10.10.5.1 wrote: {'p': '', 'd': 'T3', 'c': '2017-11-19 18:23:34.164350'}
Time Delay: 0.278126
10.10.5.1 wrote: {'p': '', 'c': '2017-11-19 18:23:34.645754', 'd': 'T3'}
Time Delay: 0.291246
10.10.5.1 wrote: {'p': '', 'd': 'T3', 'c': '2017-11-19 18:23:35.150642'}
Time Delay: 0.310369
10.10.5.1 wrote: {'p': '', 'd': 'T3', 'c': '2017-11-19 18:23:35.714329'}
Time Delay: 0.279028
10.10.5.1 wrote: {'p': '', 'c': '2017-11-19 18:23:36.204220', 'd': 'T3'}
Time Delay: 0.282169
10.10.5.1 wrote: {'p': '', 'd': 'T3', 'c': '2017-11-19 18:23:36.688981'}
Time Delay: 0.250504
10.10.5.1 wrote: {'p': '', 'd': 'T3', 'c': '2017-11-19 18:23:37.153806'}
Time Delay: 0.263457
10.10.5.1 wrote: {'p': '', 'c': '2017-11-19 18:23:37.620208', 'd': 'T3'}
Time Delay: 0.287633
10.10.5.1 wrote: {'p': '', 'c': '2017-11-19 18:23:38.118555', 'd': 'T3'}
Time Delay: 0.283576
10.10.5.1 wrote: {'p': '', 'c': '2017-11-19 18:23:38.595827', 'd': 'T3'}
Time Delay: 0.291433
10.10.5.1 wrote: {'p': '', 'd': 'T3', 'c': '2017-11-19 18:23:39.092538'}
Time Delay: 0.262915
10.10.5.1 wrote: {'p': '', 'c': '2017-11-19 18:23:39.554978', 'd': 'T3'}
Time Delay: 0.260185
10.10.5.1 wrote: {'p': '', 'c': '2017-11-19 18:23:40.022073', 'd': 'T3'}
Time Delay: 0.264236
10.10.5.1 wrote: {'p': '', 'd': 'T3', 'c': '2017-11-19 18:23:40.486459'}
Time Delay: 0.277896
10.10.5.1 wrote: {'p': '', 'd': 'T3', 'c': '2017-11-19 18:23:40.987966'}
Time Delay: 0.268949
10.10.5.1 wrote: {'p': '', 'd': 'T3', 'c': '2017-11-19 18:23:41.470360'}
Time Delay: 0.296025
10.10.5.1 wrote: {'p': '', 'd': 'T3', 'c': '2017-11-19 18:23:41.979909'}
Time Delay: 0.280556
10.10.5.1 wrote: {'p': '', 'd': 'T3', 'c': '2017-11-19 18:23:42.481677'}
Time Delay: 0.276558
10.10.5.1 wrote: {'p': '', 'c': '2017-11-19 18:23:42.961189', 'd': 'T3'}
Time Delay: 0.300912
10.10.5.1 wrote: {'p': '', 'c': '2017-11-19 18:23:43.474671', 'd': 'T3'}
Time Delay: 0.323301
10.10.5.1 wrote: {'p': '', 'c': '2017-11-19 18:23:44.001133', 'd': 'T3'}
Time Delay: 0.270171
10.10.5.1 wrote: {'p': '', 'c': '2017-11-19 18:23:44.481996', 'd': 'T3'}
Time Delay: 0.26696
10.10.5.1 wrote: {'p': '', 'c': '2017-11-19 18:23:44.964330', 'd': 'T3'}
Time Delay: 0.302565
10.10.5.1 wrote: {'p': '', 'c': '2017-11-19 18:23:45.484510', 'd': 'T3'}
Time Delay: 0.29151
10.10.5.1 wrote: {'p': '', 'd': 'T3', 'c': '2017-11-19 18:23:45.993825'}
Time Delay: 0.270892
10.10.5.1 wrote: {'p': '', 'c': '2017-11-19 18:23:46.485922', 'd': 'T3'}
Time Delay: 0.265126
10.10.5.1 wrote: {'p': '', 'd': 'T3', 'c': '2017-11-19 18:23:46.958897'}
Time Delay: 0.317635
10.10.5.1 wrote: {'p': '', 'd': 'T3', 'c': '2017-11-19 18:23:47.484555'}
Time Delay: 0.272489
10.10.5.1 wrote: {'p': '', 'c': '2017-11-19 18:23:47.957734', 'd': 'T3'}
Time Delay: 0.288205
10.10.5.1 wrote: {'p': '', 'd': 'T3', 'c': '2017-11-19 18:23:48.454036'}
Time Delay: 0.297901
10.10.5.1 wrote: {'p': '', 'd': 'T3', 'c': '2017-11-19 18:23:48.966447'}
Time Delay: 0.274608
10.10.5.1 wrote: {'p': '', 'd': 'T3', 'c': '2017-11-19 18:23:49.456594'}
Time Delay: 0.299151
10.10.5.1 wrote: {'p': '', 'd': 'T3', 'c': '2017-11-19 18:23:49.975448'}
Time Delay: 0.314155
10.10.5.1 wrote: {'p': '', 'c': '2017-11-19 18:23:50.491944', 'd': 'T3'}
Time Delay: 0.279383
10.10.5.1 wrote: {'p': '', 'c': '2017-11-19 18:23:51.002710', 'd': 'T3'}
Time Delay: 0.2869
10.10.5.1 wrote: {'p': '', 'd': 'T3', 'c': '2017-11-19 18:23:51.498230'}
Time Delay: 0.282262
10.10.5.1 wrote: {'p': '', 'c': '2017-11-19 18:23:51.996990', 'd': 'T3'}
Time Delay: 0.288873
10.10.5.1 wrote: {'p': '', 'd': 'T3', 'c': '2017-11-19 18:23:52.501372'}
Time Delay: 0.297229
10.10.5.1 wrote: {'p': '', 'c': '2017-11-19 18:23:52.997632', 'd': 'T3'}
Time Delay: 0.304199
########################################################################
